<svg width="1015.3712158203125px" height="178.439990234375px" xmlns="http://www.w3.org/2000/svg" viewBox="-257.68560791015625 -14.219995117187494 1015.3712158203125 178.439990234375" style="background: rgba(0, 0, 0, 0);" preserveAspectRatio="xMidYMid"><defs><filter id="editing-jagged" x="-100%" y="-100%" width="300%" height="300%"><feTurbulence result="turb" baseFrequency="0.22" numOctaves="1" seed="1"></feTurbulence><feDisplacementMap in="SourceGraphic" in2="turb" scale="7.5"></feDisplacementMap></filter></defs><g filter="url(#editing-jagged)"><g transform="translate(-116.95466919243336, 121)"><path d="M40.70-46.20L40.70-46.20L40.70-46.20Q42.20-49.20 42.20-52L42.20-52L42.20-52Q42.20-54.80 41.90-56.35L41.90-56.35L41.90-56.35Q41.60-57.90 40.90-59.10L40.90-59.10L40.90-59.10Q39.40-61.70 36.40-61.70L36.40-61.70L36.40-61.70Q32.70-61.70 29.70-59L29.70-59L29.70-59Q26.50-56.20 26.50-51.80L26.50-51.80L26.50-51.80Q26.50-49 28.45-46.85L28.45-46.85L28.45-46.85Q30.40-44.70 33.40-42.70L33.40-42.70L33.40-42.70Q36.40-40.70 39.80-38.70L39.80-38.70L39.80-38.70Q43.20-36.70 46.20-34.30L46.20-34.30L46.20-34.30Q53.10-28.80 53.10-21.40L53.10-21.40L53.10-21.40Q53.10-16.40 50.45-12.15L50.45-12.15L50.45-12.15Q47.80-7.90 43.40-4.80L43.40-4.80L43.40-4.80Q33.80 2 21.10 2L21.10 2L21.10 2Q10.80 2 5.50-1.35L5.50-1.35L5.50-1.35Q0.20-4.70 0.20-9.80L0.20-9.80L0.20-9.80Q0.20-18.90 7.30-21.20L7.30-21.20L7.30-21.20Q9.30-21.90 12.35-21.90L12.35-21.90L12.35-21.90Q15.40-21.90 18.90-20.60L18.90-20.60L18.90-20.60Q17.30-16.50 17.30-12.80L17.30-12.80L17.30-12.80Q17.30-4.80 23-4.80L23-4.80L23-4.80Q26.70-4.80 29.75-7.50L29.75-7.50L29.75-7.50Q32.80-10.20 32.80-13.25L32.80-13.25L32.80-13.25Q32.80-16.30 30.85-18.50L30.85-18.50L30.85-18.50Q28.90-20.70 26-22.45L26-22.45L26-22.45Q23.10-24.20 19.75-25.90L19.75-25.90L19.75-25.90Q16.40-27.60 13.50-30L13.50-30L13.50-30Q6.70-35.50 6.70-44.30L6.70-44.30L6.70-44.30Q6.70-50 9.50-54.45L9.50-54.45L9.50-54.45Q12.30-58.90 16.80-61.90L16.80-61.90L16.80-61.90Q25.80-68 36.85-68L36.85-68L36.85-68Q47.90-68 53.25-64.70L53.25-64.70L53.25-64.70Q58.60-61.40 58.60-55.80L58.60-55.80L58.60-55.80Q58.60-50.90 54.80-47.80L54.80-47.80L54.80-47.80Q51.50-45.20 47.50-45.20L47.50-45.20L47.50-45.20Q43.50-45.20 40.70-46.20ZM62.30-10L62.30-10L62.30-10Q62.30-12.70 63.70-19.50L63.70-19.50L69-46.50L63.10-46.50L63.50-49.50L63.50-49.50Q75.50-53.10 87.10-61.90L87.10-61.90L91.90-61.90L89.50-51L97.30-51L96.40-46.50L88.70-46.50L83.60-19.50L83.60-19.50Q82.30-13.30 82.30-11.20L82.30-11.20L82.30-11.20Q82.30-6.40 86.50-5.40L86.50-5.40L86.50-5.40Q85.50-2 81.90 0L81.90 0L81.90 0Q78.30 2 73.20 2L73.20 2L73.20 2Q68.10 2 65.20-1.20L65.20-1.20L65.20-1.20Q62.30-4.40 62.30-10ZM118.20 2L118.20 2L118.20 2Q96.20 2 96.20-18.70L96.20-18.70L96.20-18.70Q96.20-33.40 104.30-42.90L104.30-42.90L104.30-42.90Q112.90-53 127.80-53L127.80-53L127.80-53Q138.60-53 144.10-48L144.10-48L144.10-48Q149.60-43 149.60-32.50L149.60-32.50L149.60-32.50Q149.60-16.50 141-7.20L141-7.20L141-7.20Q132.60 2 118.20 2ZM120.80-41.50L120.80-41.50L120.80-41.50Q119.60-38.80 118.65-34.75L118.65-34.75L118.65-34.75Q117.70-30.70 116.50-24.30L116.50-24.30L116.50-24.30Q115.30-17.90 115.30-10L115.30-10L115.30-10Q115.30-7.40 116.15-5.70L116.15-5.70L116.15-5.70Q117.00-4 119.30-4L119.30-4L119.30-4Q121.60-4 123.05-5.10L123.05-5.10L123.05-5.10Q124.50-6.20 125.60-8.80L125.60-8.80L125.60-8.80Q127.60-13.40 129.20-21.95L129.20-21.95L129.20-21.95Q130.80-30.50 130.95-34.20L130.95-34.20L130.95-34.20Q131.10-37.90 131.10-40.65L131.10-40.65L131.10-40.65Q131.10-43.40 130.30-45.20L130.30-45.20L130.30-45.20Q129.50-47 127.25-47L127.25-47L127.25-47Q125.00-47 123.50-45.60L123.50-45.60L123.50-45.60Q122.00-44.20 120.80-41.50ZM202.10-6.85L202.10-6.85L202.10-6.85Q197.90-2.60 192.15-0.30L192.15-0.30L192.15-0.30Q186.40 2 180.70 2L180.70 2L180.70 2Q175 2 173 1L173 1L169.90 18L149.60 20L163.40-51L179.70-52.70L178.40-45.80L178.40-45.80Q182.60-52.90 191.30-52.90L191.30-52.90L191.30-52.90Q201.10-52.90 206.30-46.60L206.30-46.60L206.30-46.60Q210.90-40.90 210.90-32.20L210.90-32.20L210.90-32.20Q210.90-23.50 208.60-17.30L208.60-17.30L208.60-17.30Q206.30-11.10 202.10-6.85ZM179.50-34.90L174.20-5.60L174.20-5.60Q176.30-3.80 178.90-3.80L178.90-3.80L178.90-3.80Q181.50-3.80 183-4.80L183-4.80L183-4.80Q184.50-5.80 185.60-7.80L185.60-7.80L185.60-7.80Q188.60-13.20 191-29.60L191-29.60L191-29.60Q191.70-34.40 191.70-39.10L191.70-39.10L191.70-39.10Q191.70-43.80 190.65-45.30L190.65-45.30L190.65-45.30Q189.60-46.80 187.60-46.80L187.60-46.80L187.60-46.80Q181.50-46.80 179.50-34.90L179.50-34.90ZM224.90-48.70L224.90-48.70L224.90-48.70Q221.50-51.30 221.50-56.85L221.50-56.85L221.50-56.85Q221.50-62.40 225.15-65.30L225.15-65.30L225.15-65.30Q228.80-68.20 235.10-68.20L235.10-68.20L235.10-68.20Q239.10-68.20 248.60-66.80L248.60-66.80L255.40-65.80L255.40-65.80Q258.80-65.40 262.35-65.40L262.35-65.40L262.35-65.40Q265.90-65.40 268.30-66.90L268.30-66.90L268.30-66.90Q271.90-63.70 271.90-59.10L271.90-59.10L271.90-59.10Q271.90-54.50 267.80-51.20L267.80-51.20L267.80-51.20Q263.60-47.70 258.20-47.70L258.20-47.70L258.20-47.70Q255.60-47.70 251.40-48.40L251.40-48.40L251.40-48.40Q246.50-33 246.50-22.30L246.50-22.30L246.50-22.30Q246.50-11.60 251.90-6L251.90-6L251.90-6Q249.40-1.50 245.70 0.25L245.70 0.25L245.70 0.25Q242 2 236.45 2L236.45 2L236.45 2Q230.90 2 227.45-1.05L227.45-1.05L227.45-1.05Q224-4.10 224-10.40L224-10.40L224-10.40Q224-17.70 228-29.70L228-29.70L228-29.70Q232-41.60 238-50.70L238-50.70L238-50.70Q235.10-51 232.10-51L232.10-51L232.10-51Q225.90-51 224.90-48.70ZM319-11.10L319-11.10L319-11.10Q319-6.70 323.50-5.40L323.50-5.40L323.50-5.40Q322.40-1.70 318.10 0.30L318.10 0.30L318.10 0.30Q314.50 2 310.55 2L310.55 2L310.55 2Q306.60 2 304.55 0.95L304.55 0.95L304.55 0.95Q302.50-0.10 301.40-1.80L301.40-1.80L301.40-1.80Q299.60-4.40 299.60-9.30L299.60-9.30L299.60-9.30Q299.60-12.20 301.20-20.20L301.20-20.20L302.60-27.80L302.60-27.80Q304.30-36.50 304.30-39.70L304.30-39.70L304.30-39.70Q304.30-45.30 301.20-45.30L301.20-45.30L301.20-45.30Q297.30-45.30 294.80-39.60L294.80-39.60L294.80-39.60Q293.80-37.40 293.10-34.10L293.10-34.10L286.30 0L266.20 2L280.30-70L300.40-72L299.60-68L299.60-68Q296.80-52.60 294.40-47.40L294.40-47.40L294.40-47.40Q300-53 310.30-53L310.30-53L310.30-53Q321.20-53 323.20-45.80L323.20-45.80L323.20-45.80Q323.90-43.50 323.90-41.50L323.90-41.50L323.90-41.50Q323.90-39.50 323.75-37.95L323.75-37.95L323.75-37.95Q323.60-36.40 323.10-33.60L323.10-33.60L321.80-26.40L319.50-15.10L319.50-15.10Q319-12.80 319-11.10ZM372.10-16.90L372.10-16.90L372.10-16.90Q374.60-15.20 374.60-11.45L374.60-11.45L374.60-11.45Q374.60-7.70 372.70-5.30L372.70-5.30L372.70-5.30Q370.80-2.90 367.70-1.30L367.70-1.30L367.70-1.30Q361.30 2 354.40 2L354.40 2L354.40 2Q347.50 2 343.45 0.50L343.45 0.50L343.45 0.50Q339.40-1 336.70-3.80L336.70-3.80L336.70-3.80Q331.40-9.10 331.40-18.80L331.40-18.80L331.40-18.80Q331.40-33.90 339.60-43.10L339.60-43.10L339.60-43.10Q348.40-53 363.70-53L363.70-53L363.70-53Q373.20-53 377.90-49L377.90-49L377.90-49Q381.40-46 381.40-41.10L381.40-41.10L381.40-41.10Q381.40-23.50 351-23.50L351-23.50L351-23.50Q350.60-20.90 350.60-18.70L350.60-18.70L350.60-18.70Q350.60-14.10 352.65-12.35L352.65-12.35L352.65-12.35Q354.70-10.60 358.50-10.60L358.50-10.60L358.50-10.60Q362.30-10.60 366.35-12.35L366.35-12.35L366.35-12.35Q370.40-14.10 372.10-16.90ZM351.70-27.80L351.70-27.80L351.70-27.80Q358.80-27.80 362.90-32.20L362.90-32.20L362.90-32.20Q367-36.40 367-43.10L367-43.10L367-43.10Q367-45.40 366.15-46.65L366.15-46.65L366.15-46.65Q365.30-47.90 363.60-47.90L363.60-47.90L363.60-47.90Q361.90-47.90 360.45-47.25L360.45-47.25L360.45-47.25Q359-46.60 357.50-44.40L357.50-44.40L357.50-44.40Q353.80-39.40 351.70-27.80ZM423.80-46.20L423.80-46.20L423.80-46.20Q425.30-49.20 425.30-52L425.30-52L425.30-52Q425.30-54.80 425-56.35L425-56.35L425-56.35Q424.70-57.90 424-59.10L424-59.10L424-59.10Q422.50-61.70 419.50-61.70L419.50-61.70L419.50-61.70Q415.80-61.70 412.80-59L412.80-59L412.80-59Q409.60-56.20 409.60-51.80L409.60-51.80L409.60-51.80Q409.60-49 411.55-46.85L411.55-46.85L411.55-46.85Q413.50-44.70 416.50-42.70L416.50-42.70L416.50-42.70Q419.50-40.70 422.90-38.70L422.90-38.70L422.90-38.70Q426.30-36.70 429.30-34.30L429.30-34.30L429.30-34.30Q436.20-28.80 436.20-21.40L436.20-21.40L436.20-21.40Q436.20-16.40 433.55-12.15L433.55-12.15L433.55-12.15Q430.90-7.90 426.50-4.80L426.50-4.80L426.50-4.80Q416.90 2 404.20 2L404.20 2L404.20 2Q393.90 2 388.60-1.35L388.60-1.35L388.60-1.35Q383.30-4.70 383.30-9.80L383.30-9.80L383.30-9.80Q383.30-18.90 390.40-21.20L390.40-21.20L390.40-21.20Q392.40-21.90 395.45-21.90L395.45-21.90L395.45-21.90Q398.50-21.90 402.00-20.60L402.00-20.60L402.00-20.60Q400.40-16.50 400.40-12.80L400.40-12.80L400.40-12.80Q400.40-4.80 406.10-4.80L406.10-4.80L406.10-4.80Q409.80-4.80 412.85-7.50L412.85-7.50L412.85-7.50Q415.90-10.20 415.90-13.25L415.90-13.25L415.90-13.25Q415.90-16.30 413.95-18.50L413.95-18.50L413.95-18.50Q412.00-20.70 409.10-22.45L409.10-22.45L409.10-22.45Q406.20-24.20 402.85-25.90L402.85-25.90L402.85-25.90Q399.50-27.60 396.60-30L396.60-30L396.60-30Q389.80-35.50 389.80-44.30L389.80-44.30L389.80-44.30Q389.80-50 392.60-54.45L392.60-54.45L392.60-54.45Q395.40-58.90 399.90-61.90L399.90-61.90L399.90-61.90Q408.90-68 419.95-68L419.95-68L419.95-68Q431-68 436.35-64.70L436.35-64.70L436.35-64.70Q441.70-61.40 441.70-55.80L441.70-55.80L441.70-55.80Q441.70-50.90 437.90-47.80L437.90-47.80L437.90-47.80Q434.60-45.20 430.60-45.20L430.60-45.20L430.60-45.20Q426.60-45.20 423.80-46.20ZM490.40-6.85L490.40-6.85L490.40-6.85Q486.20-2.60 480.45-0.30L480.45-0.30L480.45-0.30Q474.70 2 469.00 2L469.00 2L469.00 2Q463.30 2 461.30 1L461.30 1L458.20 18L437.90 20L451.70-51L468.00-52.70L466.70-45.80L466.70-45.80Q470.90-52.90 479.60-52.90L479.60-52.90L479.60-52.90Q489.40-52.90 494.60-46.60L494.60-46.60L494.60-46.60Q499.20-40.90 499.20-32.20L499.20-32.20L499.20-32.20Q499.20-23.50 496.90-17.30L496.90-17.30L496.90-17.30Q494.60-11.10 490.40-6.85ZM467.80-34.90L462.50-5.60L462.50-5.60Q464.60-3.80 467.20-3.80L467.20-3.80L467.20-3.80Q469.80-3.80 471.30-4.80L471.30-4.80L471.30-4.80Q472.80-5.80 473.90-7.80L473.90-7.80L473.90-7.80Q476.90-13.20 479.30-29.60L479.30-29.60L479.30-29.60Q480.00-34.40 480.00-39.10L480.00-39.10L480.00-39.10Q480.00-43.80 478.95-45.30L478.95-45.30L478.95-45.30Q477.90-46.80 475.90-46.80L475.90-46.80L475.90-46.80Q469.80-46.80 467.80-34.90L467.80-34.90ZM536.50-28.10L536.50-28.10L536.50-28.10Q540.10-34.50 540.10-41L540.10-41L540.10-41Q540.10-45.30 537-45.30L537-45.30L537-45.30Q534.60-45.30 532.10-41.20L532.10-41.20L532.10-41.20Q529.50-37.10 528.70-31.80L528.70-31.80L523.50 0L502.80 2L513-51L529.50-53L527.70-42.90L527.70-42.90Q532.60-53 543.60-53L543.60-53L543.60-53Q549.40-53 552.55-50L552.55-50L552.55-50Q555.70-47 555.70-40.85L555.70-40.85L555.70-40.85Q555.70-34.70 551.65-30.80L551.65-30.80L551.65-30.80Q547.60-26.90 540.70-26.90L540.70-26.90L540.70-26.90Q537.70-26.90 536.50-28.10ZM597.80-16.90L597.80-16.90L597.80-16.90Q600.30-15.20 600.30-11.45L600.30-11.45L600.30-11.45Q600.30-7.70 598.40-5.30L598.40-5.30L598.40-5.30Q596.50-2.90 593.40-1.30L593.40-1.30L593.40-1.30Q587 2 580.10 2L580.10 2L580.10 2Q573.20 2 569.15 0.50L569.15 0.50L569.15 0.50Q565.10-1 562.40-3.80L562.40-3.80L562.40-3.80Q557.10-9.10 557.10-18.80L557.10-18.80L557.10-18.80Q557.10-33.90 565.30-43.10L565.30-43.10L565.30-43.10Q574.10-53 589.40-53L589.40-53L589.40-53Q598.90-53 603.60-49L603.60-49L603.60-49Q607.10-46 607.10-41.10L607.10-41.10L607.10-41.10Q607.10-23.50 576.70-23.50L576.70-23.50L576.70-23.50Q576.30-20.90 576.30-18.70L576.30-18.70L576.30-18.70Q576.30-14.10 578.35-12.35L578.35-12.35L578.35-12.35Q580.40-10.60 584.20-10.60L584.20-10.60L584.20-10.60Q588-10.60 592.05-12.35L592.05-12.35L592.05-12.35Q596.10-14.10 597.80-16.90ZM577.40-27.80L577.40-27.80L577.40-27.80Q584.50-27.80 588.60-32.20L588.60-32.20L588.60-32.20Q592.70-36.40 592.70-43.10L592.70-43.10L592.70-43.10Q592.70-45.40 591.85-46.65L591.85-46.65L591.85-46.65Q591-47.90 589.30-47.90L589.30-47.90L589.30-47.90Q587.60-47.90 586.15-47.25L586.15-47.25L586.15-47.25Q584.70-46.60 583.20-44.40L583.20-44.40L583.20-44.40Q579.50-39.40 577.40-27.80ZM614.85-3L614.85-3L614.85-3Q612.50-5.60 611.45-9.70L611.45-9.70L611.45-9.70Q610.40-13.80 610.40-20.50L610.40-20.50L610.40-20.50Q610.40-27.20 612.70-33.30L612.70-33.30L612.70-33.30Q615.00-39.40 619.20-43.80L619.20-43.80L619.20-43.80Q627.80-53 642.00-53L642.00-53L642.00-53Q647.10-53 650.80-51.30L650.80-51.30L667.90-53L660.50-14L660.50-14Q660.20-12.80 660.20-10.60L660.20-10.60L660.20-10.60Q660.20-8.40 661.55-7L661.55-7L661.55-7Q662.90-5.60 664.90-5.40L664.90-5.40L664.90-5.40Q663.90-2 660.25 0L660.25 0L660.25 0Q656.60 2 652.50 2L652.50 2L652.50 2Q648.40 2 645.65 0.45L645.65 0.45L645.65 0.45Q642.90-1.10 642.10-3.70L642.10-3.70L642.10-3.70Q640.50-1.20 637.10 0.40L637.10 0.40L637.10 0.40Q633.70 2 629.15 2L629.15 2L629.15 2Q624.60 2 620.90 0.80L620.90 0.80L620.90 0.80Q617.20-0.40 614.85-3ZM635.95-43.60L635.95-43.60L635.95-43.60Q634.80-41.80 633.80-38.75L633.80-38.75L633.80-38.75Q632.80-35.70 631.15-27.55L631.15-27.55L631.15-27.55Q629.50-19.40 629.50-13.60L629.50-13.60L629.50-13.60Q629.50-7.80 630.40-6.10L630.40-6.10L630.40-6.10Q631.30-4.40 632.90-4.40L632.90-4.40L632.90-4.40Q636.10-4.40 638.45-7.45L638.45-7.45L638.45-7.45Q640.80-10.50 641.70-15.90L641.70-15.90L647.00-45.20L647.00-45.20Q644.90-47 642.45-47L642.45-47L642.45-47Q640.00-47 638.55-46.20L638.55-46.20L638.55-46.20Q637.10-45.40 635.95-43.60ZM704.40-53L704.40-53L704.40-53Q708-53 710.80-52.20L710.80-52.20L710.80-52.20Q710.90-52.60 711.10-53.70L711.10-53.70L711.60-56.80L711.60-56.80Q712-58.80 712.60-62.10L712.60-62.10L714.20-70L734.10-72L723-14L723-14Q722.90-13.40 722.90-12.40L722.90-12.40L722.90-10.80L722.90-10.80Q722.90-8.60 724-6.95L724-6.95L724-6.95Q725.10-5.30 726.90-5.30L726.90-5.30L726.90-5.30Q724.90-0.60 718.80 1.40L718.80 1.40L718.80 1.40Q716.70 2 713.75 2L713.75 2L713.75 2Q710.80 2 708.10 0.45L708.10 0.45L708.10 0.45Q705.40-1.10 704.60-3.70L704.60-3.70L704.60-3.70Q703-1.10 699.80 0.45L699.80 0.45L699.80 0.45Q696.60 2 691.95 2L691.95 2L691.95 2Q687.30 2 683.45 0.80L683.45 0.80L683.45 0.80Q679.60-0.40 677.20-3L677.20-3L677.20-3Q672.80-8.10 672.80-19.70L672.80-19.70L672.80-19.70Q672.80-34.70 681.60-43.80L681.60-43.80L681.60-43.80Q690.40-53 704.40-53ZM703.70-47L703.70-47L703.70-47Q700-47 698-43L698-43L698-43Q696-39 693.95-29.10L693.95-29.10L693.95-29.10Q691.90-19.20 691.90-10.30L691.90-10.30L691.90-10.30Q691.90-4.20 695.50-4.20L695.50-4.20L695.50-4.20Q698.70-4.20 700.95-7.40L700.95-7.40L700.95-7.40Q703.20-10.60 704.10-15.90L704.10-15.90L709.50-45.20L709.50-45.20Q707.40-47 703.70-47Z" fill="#444"></path></g></g><style>text {
  font-size: 64px;
  font-family: Arial Black;
  dominant-baseline: central;
  text-anchor: middle;
}</style></svg>